module gitlab.com/blackprotocol/blacknode

go 1.19

require (
	github.com/99designs/keyring v1.2.1
	github.com/armon/go-metrics v0.4.1
	github.com/binance-chain/ledger-cosmos-go v0.9.9 // indirect
	github.com/binance-chain/tss-lib v1.3.2
	github.com/blang/semver v3.5.1+incompatible
	github.com/btcsuite/btcd v0.22.1
	github.com/btcsuite/btcutil v1.0.3-0.20201208143702-a53e38424cce
	github.com/cenkalti/backoff v2.2.1+incompatible
	github.com/cosmos/cosmos-sdk v0.46.7
	github.com/cosmos/go-bip39 v1.0.0
	github.com/decred/dcrd/dcrec/edwards v1.0.0
	github.com/eager7/dogd v0.0.0-20200427085516-2caf59f59dbb
	github.com/eager7/dogutil v0.0.0-20200427040807-200e961ba4b5
	github.com/ethereum/go-ethereum v1.10.25
	github.com/gcash/bchd v0.17.1
	github.com/gcash/bchutil v0.0.0-20201025062739-fc759989ee3e
	github.com/gogo/protobuf v1.3.3
	github.com/google/uuid v1.3.0
	github.com/gorilla/mux v1.8.0
	github.com/grpc-ecosystem/grpc-gateway v1.16.0
	github.com/hashicorp/go-multierror v1.1.1
	github.com/ipfs/go-log v1.0.4
	github.com/ltcsuite/ltcd v0.20.1-beta.0.20201210074626-c807bfe31ef0
	github.com/ltcsuite/ltcutil v1.0.2-beta
	github.com/magiconair/properties v1.8.6 // indirect
	github.com/multiformats/go-multiaddr v0.3.1
	github.com/prometheus/client_golang v1.14.0
	github.com/rakyll/statik v0.1.7 // indirect
	github.com/rjeczalik/notify v0.9.2 // indirect
	github.com/rs/zerolog v1.28.0
	github.com/spf13/cast v1.5.0
	github.com/spf13/cobra v1.6.1
	github.com/spf13/pflag v1.0.5
	github.com/spf13/viper v1.14.0
	github.com/syndtr/goleveldb v1.0.1-0.20210819022825-2ae1ddf74ef7
	github.com/tendermint/btcd v0.1.1
	github.com/tendermint/go-amino v0.16.0
	github.com/tendermint/tendermint v0.34.24
	github.com/tendermint/tm-db v0.6.7
	gitlab.com/thorchain/bifrost/bchd-txscript v0.0.0-20221030141659-2c0aa3290779
	gitlab.com/thorchain/bifrost/dogd-txscript v0.0.0-20221115151937-74db6a9d3c92
	gitlab.com/thorchain/bifrost/ltcd-txscript v0.0.0-20221030141522-6ec18ecc4447
	gitlab.com/thorchain/bifrost/txscript v0.0.0-20221115150551-993a3adacf25
	gitlab.com/thorchain/binance-sdk v1.2.3-0.20210117202539-d569b6b9ba5d
	gitlab.com/thorchain/tss/go-tss v1.5.3
	go.uber.org/atomic v1.10.0
	golang.org/x/oauth2 v0.0.0-20221014153046-6fdb5e3db783
	golang.org/x/sync v0.1.0
	google.golang.org/genproto v0.0.0-20221118155620-16455021b5e6
	google.golang.org/grpc v1.51.0
	gopkg.in/check.v1 v1.0.0-20201130134442-10cb98267c6c
	gopkg.in/ini.v1 v1.67.0 // indirect
	gopkg.in/yaml.v2 v2.4.0
)

require (
	filippo.io/edwards25519 v1.0.0-rc.1 // indirect
	github.com/ChainSafe/go-schnorrkel v0.0.0-20200405005733-88cbf1b4c40d // indirect
	github.com/StackExchange/wmi v0.0.0-20180116203802-5d049714c4a6 // indirect
	github.com/VictoriaMetrics/fastcache v1.9.0 // indirect
	github.com/aead/siphash v1.0.1 // indirect
	github.com/agl/ed25519 v0.0.0-20200225211852-fd4d107ace12 // indirect
	github.com/beorn7/perks v1.0.1 // indirect
	github.com/bgentry/speakeasy v0.1.0 // indirect
	github.com/btcsuite/btcd/btcec/v2 v2.3.2 // indirect
	github.com/btcsuite/btclog v0.0.0-20170628155309-84c8d2346e9f // indirect
	github.com/btcsuite/go-socks v0.0.0-20170105172521-4720035b7bfd // indirect
	github.com/btcsuite/websocket v0.0.0-20150119174127-31079b680792 // indirect
	github.com/cespare/xxhash v1.1.0 // indirect
	github.com/cespare/xxhash/v2 v2.1.2 // indirect
	github.com/coinbase/rosetta-sdk-go v0.7.9 // indirect
	github.com/confio/ics23/go v0.9.0 // indirect
	github.com/coreos/go-semver v0.3.0 // indirect
	github.com/cosmos/btcutil v1.0.5 // indirect
	github.com/cosmos/iavl v0.19.4 // indirect
	github.com/cosmos/ibc-go/v5 v5.1.0
	github.com/cosmos/ledger-cosmos-go v0.12.1 // indirect
	github.com/cosmos/ledger-go v0.9.2 // indirect
	github.com/danieljoos/wincred v1.1.2 // indirect
	github.com/davecgh/go-spew v1.1.1 // indirect
	github.com/davidlazar/go-crypto v0.0.0-20200604182044-b73af7476f6c // indirect
	github.com/dchest/siphash v1.2.2 // indirect
	github.com/deckarep/golang-set v1.8.0 // indirect
	github.com/decred/dcrd/dcrec/edwards/v2 v2.0.0 // indirect
	github.com/decred/dcrd/dcrec/secp256k1/v4 v4.1.0 // indirect
	github.com/desertbit/timer v0.0.0-20180107155436-c41aec40b27f // indirect
	github.com/dgraph-io/badger/v2 v2.2007.4 // indirect
	github.com/dgraph-io/ristretto v0.1.1 // indirect
	github.com/dgryski/go-farm v0.0.0-20200201041132-a6ae2369ad13 // indirect
	github.com/dustin/go-humanize v1.0.0 // indirect
	github.com/dvsekhvalnov/jose2go v1.5.0 // indirect
	github.com/eager7/doglog v0.0.0-20200427040431-a0db59f0a792 // indirect
	github.com/felixge/httpsnoop v1.0.2 // indirect
	github.com/flynn/noise v0.0.0-20180327030543-2492fe189ae6 // indirect
	github.com/fsnotify/fsnotify v1.6.0 // indirect
	github.com/gcash/bchlog v0.0.0-20180913005452-b4f036f92fa6 // indirect
	github.com/go-kit/kit v0.12.0 // indirect
	github.com/go-logfmt/logfmt v0.5.1 // indirect
	github.com/go-ole/go-ole v1.2.6 // indirect
	github.com/go-stack/stack v1.8.0 // indirect
	github.com/godbus/dbus v0.0.0-20190726142602-4481cbc300e2 // indirect
	github.com/gogo/gateway v1.1.0 // indirect
	github.com/golang/protobuf v1.5.2
	github.com/golang/snappy v0.0.4 // indirect
	github.com/google/btree v1.1.2 // indirect
	github.com/google/gopacket v1.1.18 // indirect
	github.com/google/orderedcode v0.0.1 // indirect
	github.com/gorilla/handlers v1.5.1 // indirect
	github.com/gorilla/websocket v1.5.0 // indirect
	github.com/grpc-ecosystem/go-grpc-middleware v1.3.0 // indirect
	github.com/gsterjov/go-libsecret v0.0.0-20161001094733-a6f4afe4910c // indirect
	github.com/gtank/merlin v0.1.1 // indirect
	github.com/gtank/ristretto255 v0.1.2 // indirect
	github.com/hashicorp/errwrap v1.1.0 // indirect
	github.com/hashicorp/go-cleanhttp v0.5.2 // indirect
	github.com/hashicorp/go-immutable-radix v1.3.1 // indirect
	github.com/hashicorp/golang-lru v0.5.5-0.20210104140557-80c98217689d // indirect
	github.com/hashicorp/hcl v1.0.0 // indirect
	github.com/hdevalence/ed25519consensus v0.0.0-20220222234857-c00d1f31bab3 // indirect
	github.com/holiman/bloomfilter/v2 v2.0.3 // indirect
	github.com/holiman/uint256 v1.2.0 // indirect
	github.com/huin/goupnp v1.0.3 // indirect
	github.com/improbable-eng/grpc-web v0.15.0 // indirect
	github.com/inconshreveable/mousetrap v1.0.1 // indirect
	github.com/ipfs/go-cid v0.0.7 // indirect
	github.com/ipfs/go-datastore v0.4.5 // indirect
	github.com/ipfs/go-ipfs-util v0.0.2 // indirect
	github.com/ipfs/go-ipns v0.0.2 // indirect
	github.com/ipfs/go-log/v2 v2.1.1 // indirect
	github.com/jackpal/go-nat-pmp v1.0.2 // indirect
	github.com/jbenet/go-temp-err-catcher v0.1.0 // indirect
	github.com/jbenet/goprocess v0.1.4 // indirect
	github.com/jmhodges/levigo v1.0.0 // indirect
	github.com/json-iterator/go v1.1.12
	github.com/kkdai/bstream v1.0.0 // indirect
	github.com/klauspost/compress v1.15.12 // indirect
	github.com/koron/go-ssdp v0.0.0-20191105050749-2e1c40ed0b5d // indirect
	github.com/kr/pretty v0.3.0 // indirect
	github.com/kr/text v0.2.0 // indirect
	github.com/lib/pq v1.10.7 // indirect
	github.com/libp2p/go-addr-util v0.0.2 // indirect
	github.com/libp2p/go-buffer-pool v0.1.0 // indirect
	github.com/libp2p/go-cidranger v1.1.0 // indirect
	github.com/libp2p/go-conn-security-multistream v0.2.0 // indirect
	github.com/libp2p/go-eventbus v0.2.1 // indirect
	github.com/libp2p/go-flow-metrics v0.0.3 // indirect
	github.com/libp2p/go-libp2p v0.11.0 // indirect
	github.com/libp2p/go-libp2p-asn-util v0.0.0-20200825225859-85005c6cf052 // indirect
	github.com/libp2p/go-libp2p-autonat v0.3.2 // indirect
	github.com/libp2p/go-libp2p-blankhost v0.2.0 // indirect
	github.com/libp2p/go-libp2p-circuit v0.3.1 // indirect
	github.com/libp2p/go-libp2p-core v0.6.1 // indirect
	github.com/libp2p/go-libp2p-discovery v0.5.0 // indirect
	github.com/libp2p/go-libp2p-kad-dht v0.10.0 // indirect
	github.com/libp2p/go-libp2p-kbucket v0.4.7 // indirect
	github.com/libp2p/go-libp2p-loggables v0.1.0 // indirect
	github.com/libp2p/go-libp2p-mplex v0.2.4 // indirect
	github.com/libp2p/go-libp2p-nat v0.0.6 // indirect
	github.com/libp2p/go-libp2p-noise v0.1.1 // indirect
	github.com/libp2p/go-libp2p-peerstore v0.2.6 // indirect
	github.com/libp2p/go-libp2p-pnet v0.2.0 // indirect
	github.com/libp2p/go-libp2p-record v0.1.3 // indirect
	github.com/libp2p/go-libp2p-swarm v0.2.8 // indirect
	github.com/libp2p/go-libp2p-tls v0.1.3 // indirect
	github.com/libp2p/go-libp2p-transport-upgrader v0.3.0 // indirect
	github.com/libp2p/go-libp2p-yamux v0.2.8 // indirect
	github.com/libp2p/go-mplex v0.1.3 // indirect
	github.com/libp2p/go-msgio v0.0.6 // indirect
	github.com/libp2p/go-nat v0.0.5 // indirect
	github.com/libp2p/go-netroute v0.1.3 // indirect
	github.com/libp2p/go-openssl v0.0.7 // indirect
	github.com/libp2p/go-reuseport v0.0.2 // indirect
	github.com/libp2p/go-reuseport-transport v0.0.4 // indirect
	github.com/libp2p/go-sockaddr v0.1.0 // indirect
	github.com/libp2p/go-stream-muxer-multistream v0.3.0 // indirect
	github.com/libp2p/go-tcp-transport v0.2.1 // indirect
	github.com/libp2p/go-ws-transport v0.3.1 // indirect
	github.com/libp2p/go-yamux v1.3.8 // indirect
	github.com/mattn/go-isatty v0.0.16 // indirect
	github.com/mattn/go-runewidth v0.0.9 // indirect
	github.com/matttproud/golang_protobuf_extensions v1.0.2-0.20181231171920-c182affec369 // indirect
	github.com/mimoo/StrobeGo v0.0.0-20210601165009-122bf33a46e0 // indirect
	github.com/minio/blake2b-simd v0.0.0-20160723061019-3f5f724cb5b1 // indirect
	github.com/minio/highwayhash v1.0.2 // indirect
	github.com/minio/sha256-simd v0.1.1 // indirect
	github.com/mitchellh/go-homedir v1.1.0 // indirect
	github.com/mitchellh/mapstructure v1.5.0 // indirect
	github.com/modern-go/concurrent v0.0.0-20180306012644-bacd9c7ef1dd // indirect
	github.com/modern-go/reflect2 v1.0.2 // indirect
	github.com/mr-tron/base58 v1.2.0 // indirect
	github.com/mtibben/percent v0.2.1 // indirect
	github.com/multiformats/go-base32 v0.0.3 // indirect
	github.com/multiformats/go-base36 v0.1.0 // indirect
	github.com/multiformats/go-multiaddr-dns v0.2.0 // indirect
	github.com/multiformats/go-multiaddr-fmt v0.1.0 // indirect
	github.com/multiformats/go-multiaddr-net v0.2.0 // indirect
	github.com/multiformats/go-multibase v0.0.3 // indirect
	github.com/multiformats/go-multihash v0.0.14 // indirect
	github.com/multiformats/go-multistream v0.1.2 // indirect
	github.com/multiformats/go-varint v0.0.6 // indirect
	github.com/olekukonko/tablewriter v0.0.5 // indirect
	github.com/opentracing/opentracing-go v1.2.0 // indirect
	github.com/otiai10/primes v0.0.0-20180210170552-f6d2a1ba97c4 // indirect
	github.com/pelletier/go-toml v1.9.5 // indirect
	github.com/petermattis/goid v0.0.0-20180202154549-b0b1615b78e5 // indirect
	github.com/pkg/errors v0.9.1 // indirect
	github.com/pmezard/go-difflib v1.0.0 // indirect
	github.com/prometheus/client_model v0.3.0 // indirect
	github.com/prometheus/common v0.37.0 // indirect
	github.com/prometheus/procfs v0.8.0 // indirect
	github.com/prometheus/tsdb v0.10.0 // indirect
	github.com/rcrowley/go-metrics v0.0.0-20201227073835-cf1acfcdf475 // indirect
	github.com/regen-network/cosmos-proto v0.3.1 // indirect
	github.com/rogpeppe/go-internal v1.8.1 // indirect
	github.com/rs/cors v1.8.2 // indirect
	github.com/sasha-s/go-deadlock v0.3.1 // indirect
	github.com/shirou/gopsutil v3.21.4-0.20210419000835-c7a38de76ee5+incompatible // indirect
	github.com/spacemonkeygo/spacelog v0.0.0-20180420211403-2296661a0572 // indirect
	github.com/spaolacci/murmur3 v1.1.0 // indirect
	github.com/spf13/afero v1.9.2 // indirect
	github.com/spf13/jwalterweatherman v1.1.0 // indirect
	github.com/stretchr/testify v1.8.1
	github.com/subosito/gotenv v1.4.1 // indirect
	github.com/tendermint/crypto v0.0.0-20191022145703-50d29ede1e15 // indirect
	github.com/tklauser/go-sysconf v0.3.10 // indirect
	github.com/tklauser/numcpus v0.4.0 // indirect
	github.com/whyrusleeping/go-keyspace v0.0.0-20160322163242-5b898ac5add1 // indirect
	github.com/whyrusleeping/multiaddr-filter v0.0.0-20160516205228-e903e4adabd7 // indirect
	github.com/zondax/hid v0.9.1 // indirect
	github.com/zondax/ledger-go v0.14.0 // indirect
	go.etcd.io/bbolt v1.3.6 // indirect
	go.opencensus.io v0.23.0 // indirect
	go.uber.org/multierr v1.8.0 // indirect
	go.uber.org/zap v1.23.0 // indirect
	golang.org/x/crypto v0.4.0 // indirect
	golang.org/x/net v0.3.0 // indirect
	golang.org/x/sys v0.3.0 // indirect
	golang.org/x/term v0.3.0 // indirect
	golang.org/x/text v0.5.0 // indirect
	google.golang.org/appengine v1.6.7 // indirect
	google.golang.org/protobuf v1.28.2-0.20220831092852-f930b1dc76e8 // indirect
	gopkg.in/natefinch/npipe.v2 v2.0.0-20160621034901-c1b8fa8bdcce // indirect
	gopkg.in/yaml.v3 v3.0.1 // indirect
	nhooyr.io/websocket v1.8.6 // indirect
)

require (
	cosmossdk.io/errors v1.0.0-beta.7
	cosmossdk.io/math v1.0.0-beta.4
	github.com/btcsuite/btcd/chaincfg/chainhash v1.0.1
	github.com/cosmos/cosmos-proto v1.0.0-beta.1
	github.com/cosmos/gogoproto v1.4.3
	github.com/jinzhu/copier v0.3.5
	golang.org/x/tools v0.2.0
)

require (
	cloud.google.com/go v0.105.0 // indirect
	cloud.google.com/go/compute v1.12.1 // indirect
	cloud.google.com/go/compute/metadata v0.2.1 // indirect
	cloud.google.com/go/iam v0.7.0 // indirect
	cloud.google.com/go/storage v1.27.0 // indirect
	github.com/99designs/go-keychain v0.0.0-20191008050251-8e49817e8af4 // indirect
	github.com/Workiva/go-datastructures v1.0.53 // indirect
	github.com/aws/aws-sdk-go v1.40.45 // indirect
	github.com/bgentry/go-netrc v0.0.0-20140422174119-9fd32a8b3d3d // indirect
	github.com/cenkalti/backoff/v4 v4.1.3 // indirect
	github.com/chzyer/readline v0.0.0-20180603132655-2972be24d48e // indirect
	github.com/cockroachdb/apd/v2 v2.0.2 // indirect
	github.com/cosmos/gorocksdb v1.2.0 // indirect
	github.com/creachadair/taskgroup v0.3.2 // indirect
	github.com/go-kit/log v0.2.1 // indirect
	github.com/golang/glog v1.0.0 // indirect
	github.com/golang/groupcache v0.0.0-20210331224755-41bb18bfe9da // indirect
	github.com/google/go-cmp v0.5.9 // indirect
	github.com/googleapis/enterprise-certificate-proxy v0.2.0 // indirect
	github.com/googleapis/gax-go/v2 v2.6.0 // indirect
	github.com/hashicorp/go-getter v1.6.2 // indirect
	github.com/hashicorp/go-safetemp v1.0.0 // indirect
	github.com/hashicorp/go-version v1.6.0 // indirect
	github.com/jmespath/go-jmespath v0.4.0 // indirect
	github.com/manifoldco/promptui v0.9.0 // indirect
	github.com/mattn/go-colorable v0.1.13 // indirect
	github.com/mitchellh/go-testing-interface v1.0.0 // indirect
	github.com/pelletier/go-toml/v2 v2.0.5 // indirect
	github.com/stretchr/objx v0.5.0 // indirect
	github.com/ulikunitz/xz v0.5.8 // indirect
	golang.org/x/exp v0.0.0-20221019170559-20944726eadf // indirect
	golang.org/x/mod v0.6.0 // indirect
	golang.org/x/xerrors v0.0.0-20220907171357-04be3eba64a2 // indirect
	google.golang.org/api v0.102.0 // indirect
	sigs.k8s.io/yaml v1.3.0 // indirect
)

replace (
	github.com/agl/ed25519 => github.com/binance-chain/edwards25519 v0.0.0-20200305024217-f36fc4b53d43
	github.com/binance-chain/tss-lib => gitlab.com/thorchain/tss/tss-lib v0.1.3
	github.com/cosmos/ledger-cosmos-go => github.com/thorchain/ledger-thorchain-go v0.12.1
	github.com/gogo/protobuf => github.com/regen-network/protobuf v1.3.3-alpha.regen.1
	github.com/jhump/protoreflect => github.com/jhump/protoreflect v1.9.0
	github.com/tendermint/go-amino => github.com/binance-chain/bnc-go-amino v0.14.1-binance.1
	github.com/zondax/ledger-go => github.com/binance-chain/ledger-go v0.9.1
)
